\addvspace {10\p@ }
\contentsline {figure}{\numberline {\relax 1.1}{\ignorespaces Project room with test track, cars and monitors\relax }}{2}{figure.caption.8}
\addvspace {10\p@ }
\contentsline {figure}{\numberline {\relax 2.1}{\ignorespaces Autonomy levels according to J3016 SAE Standard\cite {SAE19}\relax }}{6}{figure.caption.9}
\contentsline {figure}{\numberline {\relax 2.2}{\ignorespaces \gls {ADAS} architecture of BMW AG\cite {BMW15}\relax }}{7}{figure.caption.10}
\contentsline {figure}{\numberline {\relax 2.3}{\ignorespaces Different Approaches for Lane Centering\relax }}{9}{figure.caption.11}
\contentsline {figure}{\numberline {\relax 2.4}{\ignorespaces Communication in a \gls {ROS} system\relax }}{11}{figure.caption.12}
\contentsline {figure}{\numberline {\relax 2.5}{\ignorespaces Organization chart of the \gls {SAM} project study\relax }}{13}{figure.caption.13}
\contentsline {figure}{\numberline {\relax 2.6}{\ignorespaces \gls {AADC} hardware platform\relax }}{15}{figure.caption.14}
\contentsline {figure}{\numberline {\relax 2.7}{\ignorespaces Complete Project Architecture\relax }}{18}{figure.caption.15}
\contentsline {figure}{\numberline {\relax 2.8}{\ignorespaces The Project Structure in directory view\relax }}{19}{figure.caption.16}
\addvspace {10\p@ }
\contentsline {figure}{\numberline {\relax 3.1}{\ignorespaces Workflow of the Lane Follower in the \gls {ROS} system\relax }}{21}{figure.caption.17}
\contentsline {figure}{\numberline {\relax 3.2}{\ignorespaces Workflow of Velocity and Steering Angle through Float Mux Package\relax }}{22}{figure.caption.18}
\contentsline {figure}{\numberline {\relax 3.3}{\ignorespaces Configuration file of both float multiplexers\relax }}{23}{figure.caption.19}
\contentsline {figure}{\numberline {\relax 3.4}{\ignorespaces The Web-based Remote Controller\relax }}{24}{figure.caption.20}
\contentsline {figure}{\numberline {\relax 3.5}{\ignorespaces Relations of the Remote Controller\relax }}{25}{figure.caption.21}
\contentsline {figure}{\numberline {\relax 3.6}{\ignorespaces Workflow of steering angle and velocity through trajectories\relax }}{26}{figure.caption.22}
\contentsline {figure}{\numberline {\relax 3.8}{\ignorespaces Pipeline of the Line Segment Detection\relax }}{28}{figure.caption.24}
\contentsline {figure}{\numberline {\relax 3.9}{\ignorespaces Traffic Signs with corresponding fiducial markers\relax }}{28}{figure.caption.25}
\contentsline {figure}{\numberline {\relax 3.10}{\ignorespaces Pipeline of the Traffic Sign Detection\relax }}{29}{figure.caption.26}
\contentsline {figure}{\numberline {\relax 3.11}{\ignorespaces Interfaces for communication between modules\relax }}{30}{figure.caption.27}
\contentsline {figure}{\numberline {\relax 3.15}{\ignorespaces Detected lines within the \gls {ROI}\relax }}{33}{figure.caption.32}
\contentsline {figure}{\numberline {\relax 3.16}{\ignorespaces Debug Visualization of projected lines\relax }}{34}{figure.caption.33}
\contentsline {figure}{\numberline {\relax 3.12}{\ignorespaces Package Structure of the Lane Follower\relax }}{37}{figure.caption.29}
\contentsline {figure}{\numberline {\relax 3.14}{\ignorespaces Main process steps for computing the desired steering angle\relax }}{38}{figure.caption.31}
\addvspace {10\p@ }
\contentsline {figure}{\numberline {\relax 4.2}{\ignorespaces Bug Fixing of winter semester 2020 feature branches\relax }}{42}{figure.caption.36}
\contentsline {figure}{\numberline {\relax 4.4}{\ignorespaces New LSD Input of the Lane Follower\relax }}{47}{figure.caption.41}
\contentsline {figure}{\numberline {\relax 4.5}{\ignorespaces Usage of detected Traffic Sign for Speed Regulation\relax }}{47}{figure.caption.42}
\contentsline {figure}{\numberline {\relax 4.6}{\ignorespaces New Trajectory Output of the Lane Follower\relax }}{49}{figure.caption.44}
\addvspace {10\p@ }
